{
    "key": "group_5a173c20d076c",
    "title": "Page Components",
    "fields": [
        {
            "key": "field_5b03ff08b30a3",
            "label": "Page Components",
            "name": "page_components",
            "type": "flexible_content",
            "instructions": "",
            "required": 0,
            "conditional_logic": 0,
            "wrapper": {
                "width": "",
                "class": "",
                "id": ""
            },
            "layouts": {
                "layout_5fc90635e5edf": {
                    "key": "layout_5fc90635e5edf",
                    "name": "hero",
                    "label": "Banner",
                    "display": "block",
                    "sub_fields": [
                        {
                            "key": "field_5fc9064ae5ee0",
                            "label": "Banner",
                            "name": "hero_section",
                            "type": "repeater",
                            "instructions": "",
                            "required": 0,
                            "conditional_logic": 0,
                            "wrapper": {
                                "width": "",
                                "class": "",
                                "id": ""
                            },
                            "collapsed": "",
                            "min": 0,
                            "max": 0,
                            "layout": "block",
                            "button_label": "",
                            "sub_fields": [
                                {
                                    "key": "field_5fc9065ae5ee1",
                                    "label": "Image",
                                    "name": "hero_image",
                                    "type": "image",
                                    "instructions": "Note: Image size should be greater than 1600px X 646px.",
                                    "required": 0,
                                    "conditional_logic": 0,
                                    "wrapper": {
                                        "width": "",
                                        "class": "",
                                        "id": ""
                                    },
                                    "return_format": "id",
                                    "preview_size": "medium",
                                    "library": "all",
                                    "min_width": "",
                                    "min_height": "",
                                    "min_size": "",
                                    "max_width": "",
                                    "max_height": "",
                                    "max_size": "",
                                    "mime_types": ""
                                },
                                {
                                    "key": "field_5fc9068ae5ee2",
                                    "label": "Content",
                                    "name": "hero_content",
                                    "type": "wysiwyg",
                                    "instructions": "",
                                    "required": 0,
                                    "conditional_logic": 0,
                                    "wrapper": {
                                        "width": "",
                                        "class": "",
                                        "id": ""
                                    },
                                    "default_value": "",
                                    "tabs": "all",
                                    "toolbar": "full",
                                    "media_upload": 0,
                                    "delay": 1
                                }
                            ]
                        }
                    ],
                    "min": "",
                    "max": ""
                },
                "5b0e623754793": {
                    "key": "5b0e623754793",
                    "name": "content_columns",
                    "label": "Content Columns",
                    "display": "block",
                    "sub_fields": [
                        {
                            "key": "field_5b0e623754794",
                            "label": "Content",
                            "name": "",
                            "type": "tab",
                            "instructions": "",
                            "required": 0,
                            "conditional_logic": 0,
                            "wrapper": {
                                "width": "",
                                "class": "",
                                "id": ""
                            },
                            "placement": "top",
                            "endpoint": 0
                        },
                        {
                            "key": "field_5b0e623754795",
                            "label": "Content",
                            "name": "content",
                            "type": "flexible_content",
                            "instructions": "",
                            "required": 0,
                            "conditional_logic": 0,
                            "wrapper": {
                                "width": "",
                                "class": "",
                                "id": ""
                            },
                            "layouts": {
                                "5b0552ca6d935": {
                                    "key": "5b0552ca6d935",
                                    "name": "content",
                                    "label": "Content",
                                    "display": "block",
                                    "sub_fields": [
                                        {
                                            "key": "field_5b0e623754796",
                                            "label": "Content",
                                            "name": "",
                                            "type": "tab",
                                            "instructions": "",
                                            "required": 0,
                                            "conditional_logic": 0,
                                            "wrapper": {
                                                "width": "",
                                                "class": "",
                                                "id": ""
                                            },
                                            "placement": "left",
                                            "endpoint": 0
                                        },
                                        {
                                            "key": "field_5b0e623754797",
                                            "label": "Content",
                                            "name": "content",
                                            "type": "wysiwyg",
                                            "instructions": "Note: Default container width is 50%, the settings can be adjusted from the tab \"Setting\".",
                                            "required": 0,
                                            "conditional_logic": 0,
                                            "wrapper": {
                                                "width": "",
                                                "class": "",
                                                "id": ""
                                            },
                                            "default_value": "",
                                            "tabs": "all",
                                            "toolbar": "full",
                                            "media_upload": 1,
                                            "delay": 1
                                        },
                                        {
                                            "key": "field_5b0e623754798",
                                            "label": "Settings",
                                            "name": "",
                                            "type": "tab",
                                            "instructions": "",
                                            "required": 0,
                                            "conditional_logic": 0,
                                            "wrapper": {
                                                "width": "",
                                                "class": "",
                                                "id": ""
                                            },
                                            "placement": "top",
                                            "endpoint": 0
                                        },
                                        {
                                            "key": "field_5b0e623754799",
                                            "label": "Column size",
                                            "name": "column_size",
                                            "type": "select",
                                            "instructions": "",
                                            "required": 0,
                                            "conditional_logic": 0,
                                            "wrapper": {
                                                "width": "33",
                                                "class": "",
                                                "id": ""
                                            },
                                            "choices": {
                                                "4": "33%",
                                                "6": "50%",
                                                "8": "66%",
                                                "12": "100%"
                                            },
                                            "default_value": 6,
                                            "allow_null": 0,
                                            "multiple": 0,
                                            "ui": 0,
                                            "return_format": "value",
                                            "ajax": 0,
                                            "placeholder": ""
                                        },
                                        {
                                            "key": "field_5b0e62375479a",
                                            "label": "Center Content Vertically?",
                                            "name": "center_vertical",
                                            "type": "true_false",
                                            "instructions": "",
                                            "required": 0,
                                            "conditional_logic": 0,
                                            "wrapper": {
                                                "width": "33",
                                                "class": "",
                                                "id": ""
                                            },
                                            "message": "",
                                            "default_value": 0,
                                            "ui": 1,
                                            "ui_on_text": "",
                                            "ui_off_text": ""
                                        }
                                    ],
                                    "min": "",
                                    "max": ""
                                },
                                "5b0640cdf905d": {
                                    "key": "5b0640cdf905d",
                                    "name": "image",
                                    "label": "Image",
                                    "display": "block",
                                    "sub_fields": [
                                        {
                                            "key": "field_5b0e62375479b",
                                            "label": "Image",
                                            "name": "",
                                            "type": "tab",
                                            "instructions": "",
                                            "required": 0,
                                            "conditional_logic": 0,
                                            "wrapper": {
                                                "width": "",
                                                "class": "",
                                                "id": ""
                                            },
                                            "placement": "left",
                                            "endpoint": 0
                                        },
                                        {
                                            "key": "field_5b0e62375479c",
                                            "label": "Image",
                                            "name": "image",
                                            "type": "image",
                                            "instructions": "Note: Default container width is 50%, the settings can be adjusted from the tab \"Setting\".",
                                            "required": 0,
                                            "conditional_logic": 0,
                                            "wrapper": {
                                                "width": "",
                                                "class": "",
                                                "id": ""
                                            },
                                            "return_format": "id",
                                            "preview_size": "thumbnail",
                                            "library": "all",
                                            "min_width": "",
                                            "min_height": "",
                                            "min_size": "",
                                            "max_width": "",
                                            "max_height": "",
                                            "max_size": "",
                                            "mime_types": ""
                                        },
                                        {
                                            "key": "field_5b0e62375479d",
                                            "label": "Settings",
                                            "name": "",
                                            "type": "tab",
                                            "instructions": "",
                                            "required": 0,
                                            "conditional_logic": 0,
                                            "wrapper": {
                                                "width": "",
                                                "class": "",
                                                "id": ""
                                            },
                                            "placement": "top",
                                            "endpoint": 0
                                        },
                                        {
                                            "key": "field_5b0e62375479e",
                                            "label": "Column Size",
                                            "name": "column_size",
                                            "type": "select",
                                            "instructions": "",
                                            "required": 0,
                                            "conditional_logic": 0,
                                            "wrapper": {
                                                "width": "33",
                                                "class": "",
                                                "id": ""
                                            },
                                            "choices": {
                                                "4": "33%",
                                                "6": "50%",
                                                "8": "66%",
                                                "12": "100%"
                                            },
                                            "default_value": 6,
                                            "allow_null": 0,
                                            "multiple": 0,
                                            "ui": 0,
                                            "return_format": "value",
                                            "ajax": 0,
                                            "placeholder": ""
                                        },
                                        {
                                            "key": "field_5b0e89af20cb0",
                                            "label": "Center Content Vertically?",
                                            "name": "center_vertical_copy",
                                            "type": "true_false",
                                            "instructions": "",
                                            "required": 0,
                                            "conditional_logic": 0,
                                            "wrapper": {
                                                "width": "33",
                                                "class": "",
                                                "id": ""
                                            },
                                            "message": "",
                                            "default_value": 0,
                                            "ui": 1,
                                            "ui_on_text": "",
                                            "ui_off_text": ""
                                        }
                                    ],
                                    "min": "",
                                    "max": ""
                                }
                            },
                            "button_label": "Add Column",
                            "min": "",
                            "max": ""
                        },
                        {
                            "key": "field_5b0e62375479f",
                            "label": "Settings",
                            "name": "settings",
                            "type": "clone",
                            "instructions": "",
                            "required": 0,
                            "conditional_logic": 0,
                            "wrapper": {
                                "width": "",
                                "class": "",
                                "id": ""
                            },
                            "clone": [
                                "group_5ba3819c51cf9"
                            ],
                            "display": "seamless",
                            "layout": "block",
                            "prefix_label": 0,
                            "prefix_name": 0
                        },
                        {
                            "key": "field_5fd0dd9da5f5b",
                            "label": "Width",
                            "name": "width",
                            "type": "radio",
                            "instructions": "",
                            "required": 0,
                            "conditional_logic": 0,
                            "wrapper": {
                                "width": "",
                                "class": "",
                                "id": ""
                            },
                            "choices": {
                                "full-width": "Full Width",
                                "default-width": "Default Width"
                            },
                            "allow_null": 0,
                            "other_choice": 0,
                            "default_value": "default-width",
                            "layout": "horizontal",
                            "return_format": "value",
                            "save_other_choice": 0
                        }
                    ],
                    "min": "",
                    "max": ""
                },
                "layout_5b8e44a842a07": {
                    "key": "layout_5b8e44a842a07",
                    "name": "products",
                    "label": "Products",
                    "display": "block",
                    "sub_fields": [
                        {
                            "key": "field_5b9df5710ed83",
                            "label": "Products",
                            "name": "",
                            "type": "tab",
                            "instructions": "",
                            "required": 0,
                            "conditional_logic": 0,
                            "wrapper": {
                                "width": "",
                                "class": "",
                                "id": ""
                            },
                            "placement": "top",
                            "endpoint": 0
                        },
                        {
                            "key": "field_5b8e44ae42a08",
                            "label": "Products",
                            "name": "products",
                            "type": "relationship",
                            "instructions": "",
                            "required": 0,
                            "conditional_logic": 0,
                            "wrapper": {
                                "width": "",
                                "class": "",
                                "id": ""
                            },
                            "post_type": [
                                "product"
                            ],
                            "taxonomy": "",
                            "filters": "",
                            "elements": [
                                "featured_image"
                            ],
                            "min": "",
                            "max": "",
                            "return_format": "id"
                        },
                        {
                            "key": "field_5b9df57b0ed84",
                            "label": "Setting",
                            "name": "setting",
                            "type": "clone",
                            "instructions": "",
                            "required": 0,
                            "conditional_logic": 0,
                            "wrapper": {
                                "width": "",
                                "class": "",
                                "id": ""
                            },
                            "clone": [
                                "group_5ba3819c51cf9"
                            ],
                            "display": "seamless",
                            "layout": "block",
                            "prefix_label": 0,
                            "prefix_name": 0
                        }
                    ],
                    "min": "",
                    "max": ""
                },
                "layout_5fb495fedbe14": {
                    "key": "layout_5fb495fedbe14",
                    "name": "background_image_with_link",
                    "label": "Background Image with Link",
                    "display": "block",
                    "sub_fields": [
                        {
                            "key": "field_5fb49625dbe16",
                            "label": "Title",
                            "name": "background_title",
                            "type": "text",
                            "instructions": "",
                            "required": 0,
                            "conditional_logic": 0,
                            "wrapper": {
                                "width": "",
                                "class": "",
                                "id": ""
                            },
                            "default_value": "",
                            "placeholder": "",
                            "prepend": "",
                            "append": "",
                            "maxlength": ""
                        },
                        {
                            "key": "field_5fb4960edbe15",
                            "label": "Image",
                            "name": "background_image",
                            "type": "image",
                            "instructions": "",
                            "required": 0,
                            "conditional_logic": 0,
                            "wrapper": {
                                "width": "50",
                                "class": "",
                                "id": ""
                            },
                            "return_format": "url",
                            "preview_size": "medium",
                            "library": "all",
                            "min_width": "",
                            "min_height": "",
                            "min_size": "",
                            "max_width": "",
                            "max_height": "",
                            "max_size": "",
                            "mime_types": ""
                        },
                        {
                            "key": "field_5fb49634dbe17",
                            "label": "Link",
                            "name": "background_link",
                            "type": "link",
                            "instructions": "",
                            "required": 0,
                            "conditional_logic": 0,
                            "wrapper": {
                                "width": "50",
                                "class": "",
                                "id": ""
                            },
                            "return_format": "array"
                        }
                    ],
                    "min": "",
                    "max": ""
                },
                "layout_5fd0e332bf4da": {
                    "key": "layout_5fd0e332bf4da",
                    "name": "google_map",
                    "label": "Google map",
                    "display": "block",
                    "sub_fields": [
                        {
                            "key": "field_5fd0e33abf4db",
                            "label": "Google Map",
                            "name": "google_map",
                            "type": "google_map",
                            "instructions": "",
                            "required": 0,
                            "conditional_logic": 0,
                            "wrapper": {
                                "width": "",
                                "class": "",
                                "id": ""
                            },
                            "center_lat": "",
                            "center_lng": "",
                            "zoom": "",
                            "height": ""
                        }
                    ],
                    "min": "",
                    "max": ""
                }
            },
            "button_label": "Add Row",
            "min": "",
            "max": ""
        }
    ],
    "location": [
        [
            {
                "param": "post_type",
                "operator": "==",
                "value": "page"
            }
        ],
        [
            {
                "param": "post_type",
                "operator": "==",
                "value": "post"
            }
        ]
    ],
    "menu_order": 0,
    "position": "normal",
    "style": "default",
    "label_placement": "top",
    "instruction_placement": "label",
    "hide_on_screen": [
        "the_content",
        "discussion",
        "comments",
        "revisions",
        "send-trackbacks"
    ],
    "active": true,
    "description": "",
    "modified": 1607525199
}