<svg xmlns="http://www.w3.org/2000/svg" width="14.007" height="18.184" viewBox="0 0 14.007 18.184">
  <path id="shopping-bag" d="M14,17.586,12.774,4.425a.507.507,0,0,0-.479-.485H9.983V3.348A3.184,3.184,0,0,0,7,0a3.184,3.184,0,0,0-2.98,3.348v.592H1.711a.507.507,0,0,0-.479.485L0,17.586a.586.586,0,0,0,.121.419.46.46,0,0,0,.358.179H13.525a.46.46,0,0,0,.358-.179A.585.585,0,0,0,14,17.586ZM4.986,3.349A2.155,2.155,0,0,1,7,1.083,2.155,2.155,0,0,1,9.02,3.349v.592H4.986ZM1.016,17.1,2.145,5.023H4.023V6.216a.514.514,0,0,0,.482.541.514.514,0,0,0,.482-.541V5.023H9.02V6.216a.485.485,0,1,0,.963,0V5.023h1.878L12.99,17.1Zm0,0" transform="translate(0 0)"/>
</svg>
