<svg xmlns="http://www.w3.org/2000/svg" width="19.879" height="15.057" viewBox="0 0 19.879 15.057">
  <g id="youtube" transform="translate(0.001)">
    <path id="Path_30" data-name="Path 30" d="M196.532,109.026l-4.392-2.4a.807.807,0,0,0-1.194.708V112.1a.805.805,0,0,0,1.189.71l4.392-2.362a.807.807,0,0,0,.005-1.418Zm-4.421,2.47v-3.561l3.282,1.8Zm0,0" transform="translate(-183.533 -102.387)" fill="#424242"/>
    <path id="Path_31" data-name="Path 31" d="M19.732,3.554V3.544a4.546,4.546,0,0,0-.876-2.307,3.235,3.235,0,0,0-2.142-1l-.1-.012-.035,0C13.951.026,9.982,0,9.942,0H9.935C9.9,0,5.927.026,3.275.217l-.035,0L3.147.232a3.153,3.153,0,0,0-2.13,1.036A4.764,4.764,0,0,0,.148,3.533l0,.02C.139,3.62,0,5.205,0,6.8V8.284c0,1.591.14,3.176.146,3.243v.01a4.5,4.5,0,0,0,.873,2.279,3.3,3.3,0,0,0,2.214.99c.081.009.15.017.2.025l.046.006c1.517.144,6.275.216,6.477.218h.012c.04,0,4.009-.026,6.637-.217l.035,0,.111-.013a3.08,3.08,0,0,0,2.112-1.01,4.764,4.764,0,0,0,.869-2.265l0-.02c.006-.067.146-1.652.146-3.243V6.8c0-1.591-.14-3.176-.146-3.243Zm-1.019,4.73c0,1.473-.129,2.99-.141,3.129A3.7,3.7,0,0,1,18,13.027a1.916,1.916,0,0,1-1.375.638l-.124.014c-2.542.184-6.361.212-6.537.213-.2,0-4.885-.075-6.356-.211-.075-.012-.157-.022-.243-.031a2.178,2.178,0,0,1-1.49-.622l-.011-.012a3.356,3.356,0,0,1-.56-1.6c-.009-.105-.141-1.64-.141-3.133V6.8c0-1.471.128-2.986.141-3.128a3.623,3.623,0,0,1,.571-1.614,2.01,2.01,0,0,1,1.4-.664l.095-.011c2.579-.185,6.425-.212,6.563-.213s3.983.029,6.539.213l.1.012a2.086,2.086,0,0,1,1.427.646l0,.005a3.41,3.41,0,0,1,.56,1.621c.009.1.141,1.637.141,3.134Zm0,0" transform="translate(0)" fill="#424242"/>
  </g>
</svg>
